1 10 20
100 200 125
201 210 89
900 1000 174
300 400 144
1 200 125
3 32 112
5 13 20
999998 999999 259
300 400 144
501 502 111
2 20 21
73 300 128
5000 10000 262
532555 532557 209
234 532 144
5 6 9
23 53 112
35 63 113
83 930 179
12 353 144
353 10203 262
532 3095 217
1 10000 262
234 2385 183
6423 6524 200
234 643 144
100 200 125
200 400 144
400 800 171
1600 3200 217
7000 14000 276
134 325 131
532 613 137
9938 10000 180
26134 31000 308
5 124 119
10 34 112
13 53 112
72 340 144
12 34 112
1 3 8
1 2 2
39 40 35
5 34 112
23 432 144
43 535 144
902 1000 174
532 3589 217
123 433 144
89 100 119
50 200 125
235 432 144
743 812 153
10 23 21
19 43 112
13 53 112
12 45 112
15 34 112
12 234 128
9 34 112
83 99 119
4 23 21
5 25 24
9 34 112
1 12 20
35 133 122
9 32 112
8 94 116
34 90 116
235 353 144
23 123 119
1 1535 182
343 2353 183
32 55 113
82 103 119
93 134 122
32 54 113
23 83 116
34 64 113
205 390 144
284 392 144
488 502 142
834 920 179
731 749 140
940 973 143
923 962 174
763 900 179
364 405 121
634 723 171
131 345 144
1042 1100 169
3412 3500 181
3853 4000 189
2342 2343 152
2354 2356 121
100 813 171
1 500 144
345 523 142
100 123 114
1 20000 279
1 100000 351
1 99999 351
300 200 128
