.................
----------------------------------------------------------------------
Ran 17 tests in 14.908s

OK
Name             Stmts   Miss Branch BrPart  Cover   Missing
------------------------------------------------------------
Collatz.py          42      0     16      0   100%
TestCollatz.py      72      0      0      0   100%
------------------------------------------------------------
TOTAL              114      0     16      0   100%
