....................
----------------------------------------------------------------------
Ran 20 tests in 0.667s

OK
Name             Stmts   Miss Branch BrPart  Cover   Missing
------------------------------------------------------------
Collatz.py          39      0     20      0   100%
TestCollatz.py      86      0      0      0   100%
------------------------------------------------------------
TOTAL              125      0     20      0   100%
